Starting a Gradle Daemon, 2 busy and 5 stopped Daemons could not be reused, use --status for details
Exception in thread "DisconnectableInputStream source reader" org.gradle.api.UncheckedIOException: java.io.IOException: Bad file descriptor
	at org.gradle.internal.UncheckedException.throwAsUncheckedException(UncheckedException.java:43)
	at org.gradle.util.DisconnectableInputStream$1.run(DisconnectableInputStream.java:125)
	at java.lang.Thread.run(Thread.java:745)
Caused by: java.io.IOException: Bad file descriptor
	at java.io.FileInputStream.readBytes(Native Method)
	at java.io.FileInputStream.read(FileInputStream.java:255)
	at java.io.BufferedInputStream.fill(BufferedInputStream.java:246)
	at java.io.BufferedInputStream.read1(BufferedInputStream.java:286)
	at java.io.BufferedInputStream.read(BufferedInputStream.java:345)
	at org.gradle.util.DisconnectableInputStream$1.run(DisconnectableInputStream.java:96)
	... 1 more
:compileJava UP-TO-DATE
:processResources UP-TO-DATE
:classes UP-TO-DATE
:run

  .   ____          _            __ _ _
 /\\ / ___'_ __ _ _(_)_ __  __ _ \ \ \ \
( ( )\___ | '_ | '_| | '_ \/ _` | \ \ \ \
 \\/  ___)| |_)| | | | | || (_| |  ) ) ) )
  '  |____| .__|_| |_|_| |_\__, | / / / /
 =========|_|==============|___/=/_/_/_/
 :: Spring Boot ::        (v1.4.1.RELEASE)

2016-10-28 11:52:12.316  INFO 31328 --- [           main] c.w.GetModelFromWekaApplication          : Starting GetModelFromWekaApplication with PID 31328 (/home/ubuntu/weka/prasad2/build/classes/main started by ubuntu in /home/ubuntu/weka/prasad2)
2016-10-28 11:52:12.344  INFO 31328 --- [           main] c.w.GetModelFromWekaApplication          : No active profile set, falling back to default profiles: default
2016-10-28 11:52:12.759  INFO 31328 --- [           main] ationConfigEmbeddedWebApplicationContext : Refreshing org.springframework.boot.context.embedded.AnnotationConfigEmbeddedWebApplicationContext@4f209819: startup date [Fri Oct 28 11:52:12 IST 2016]; root of context hierarchy
2016-10-28 11:52:25.517  INFO 31328 --- [           main] s.b.c.e.t.TomcatEmbeddedServletContainer : Tomcat initialized with port(s): 8080 (http)
2016-10-28 11:52:25.570  INFO 31328 --- [           main] o.apache.catalina.core.StandardService   : Starting service Tomcat
2016-10-28 11:52:25.671  INFO 31328 --- [           main] org.apache.catalina.core.StandardEngine  : Starting Servlet Engine: Apache Tomcat/8.5.5
2016-10-28 11:52:26.702  INFO 31328 --- [ost-startStop-1] o.a.c.c.C.[Tomcat].[localhost].[/]       : Initializing Spring embedded WebApplicationContext
2016-10-28 11:52:26.702  INFO 31328 --- [ost-startStop-1] o.s.web.context.ContextLoader            : Root WebApplicationContext: initialization completed in 13955 ms
2016-10-28 11:52:28.372  INFO 31328 --- [ost-startStop-1] o.s.b.w.servlet.ServletRegistrationBean  : Mapping servlet: 'dispatcherServlet' to [/]
2016-10-28 11:52:28.422  INFO 31328 --- [ost-startStop-1] o.s.b.w.servlet.FilterRegistrationBean   : Mapping filter: 'characterEncodingFilter' to: [/*]
2016-10-28 11:52:28.438  INFO 31328 --- [ost-startStop-1] o.s.b.w.servlet.FilterRegistrationBean   : Mapping filter: 'hiddenHttpMethodFilter' to: [/*]
2016-10-28 11:52:28.453  INFO 31328 --- [ost-startStop-1] o.s.b.w.servlet.FilterRegistrationBean   : Mapping filter: 'httpPutFormContentFilter' to: [/*]
2016-10-28 11:52:28.486  INFO 31328 --- [ost-startStop-1] o.s.b.w.servlet.FilterRegistrationBean   : Mapping filter: 'requestContextFilter' to: [/*]
2016-10-28 11:52:30.195  INFO 31328 --- [           main] s.w.s.m.m.a.RequestMappingHandlerAdapter : Looking for @ControllerAdvice: org.springframework.boot.context.embedded.AnnotationConfigEmbeddedWebApplicationContext@4f209819: startup date [Fri Oct 28 11:52:12 IST 2016]; root of context hierarchy
2016-10-28 11:52:30.572  INFO 31328 --- [           main] s.w.s.m.m.a.RequestMappingHandlerMapping : Mapped "{[/chasis/bike/{id}]}" onto public org.json.simple.JSONObject com.wekaapplication.TestController.getBikeModel(java.lang.String)
2016-10-28 11:52:30.585  INFO 31328 --- [           main] s.w.s.m.m.a.RequestMappingHandlerMapping : Mapped "{[/chasis/car/{id}]}" onto public org.json.simple.JSONObject com.wekaapplication.TestController.getcarModel(java.lang.String)
2016-10-28 11:52:30.598  INFO 31328 --- [           main] s.w.s.m.m.a.RequestMappingHandlerMapping : Mapped "{[/error],produces=[text/html]}" onto public org.springframework.web.servlet.ModelAndView org.springframework.boot.autoconfigure.web.BasicErrorController.errorHtml(javax.servlet.http.HttpServletRequest,javax.servlet.http.HttpServletResponse)
2016-10-28 11:52:30.599  INFO 31328 --- [           main] s.w.s.m.m.a.RequestMappingHandlerMapping : Mapped "{[/error]}" onto public org.springframework.http.ResponseEntity<java.util.Map<java.lang.String, java.lang.Object>> org.springframework.boot.autoconfigure.web.BasicErrorController.error(javax.servlet.http.HttpServletRequest)
2016-10-28 11:52:30.872  INFO 31328 --- [           main] o.s.w.s.handler.SimpleUrlHandlerMapping  : Mapped URL path [/webjars/**] onto handler of type [class org.springframework.web.servlet.resource.ResourceHttpRequestHandler]
2016-10-28 11:52:30.902  INFO 31328 --- [           main] o.s.w.s.handler.SimpleUrlHandlerMapping  : Mapped URL path [/**] onto handler of type [class org.springframework.web.servlet.resource.ResourceHttpRequestHandler]
2016-10-28 11:52:31.155  INFO 31328 --- [           main] o.s.w.s.handler.SimpleUrlHandlerMapping  : Mapped URL path [/**/favicon.ico] onto handler of type [class org.springframework.web.servlet.resource.ResourceHttpRequestHandler]
2016-10-28 11:52:32.638  INFO 31328 --- [           main] o.s.j.e.a.AnnotationMBeanExporter        : Registering beans for JMX exposure on startup
2016-10-28 11:52:33.051  INFO 31328 --- [           main] s.b.c.e.t.TomcatEmbeddedServletContainer : Tomcat started on port(s): 8080 (http)
2016-10-28 11:52:33.070  INFO 31328 --- [           main] c.w.GetModelFromWekaApplication          : Started GetModelFromWekaApplication in 25.906 seconds (JVM running for 31.23)
2016-10-28 11:56:56.725  INFO 31328 --- [nio-8080-exec-1] o.a.c.c.C.[Tomcat].[localhost].[/]       : Initializing Spring FrameworkServlet 'dispatcherServlet'
2016-10-28 11:56:56.727  INFO 31328 --- [nio-8080-exec-1] o.s.web.servlet.DispatcherServlet        : FrameworkServlet 'dispatcherServlet': initialization started
2016-10-28 11:56:56.892  INFO 31328 --- [nio-8080-exec-1] o.s.web.servlet.DispatcherServlet        : FrameworkServlet 'dispatcherServlet': initialization completed in 164 ms
2016-10-28 11:57:02.454  INFO 31328 --- [nio-8080-exec-1] com.wekaapplication.TestController       : Input chasis no is: MBJ11JV40073
2016-10-28 11:57:02.456  INFO 31328 --- [nio-8080-exec-1] com.wekaapplication.TestController       : Predicted Model name is: innova
2016-10-28 11:57:02.456  INFO 31328 --- [nio-8080-exec-1] com.wekaapplication.TestController       : TIme taken to predict: 1.0ms

  .   ____          _            __ _ _
 /\\ / ___'_ __ _ _(_)_ __  __ _ \ \ \ \
( ( )\___ | '_ | '_| | '_ \/ _` | \ \ \ \
 \\/  ___)| |_)| | | | | || (_| |  ) ) ) )
  '  |____| .__|_| |_|_| |_\__, | / / / /
 =========|_|==============|___/=/_/_/_/
 :: Spring Boot ::        (v1.4.1.RELEASE)

2016-11-17 11:31:32.481  INFO 15707 --- [           main] c.w.GetModelFromWekaApplication          : Starting GetModelFromWekaApplication with PID 15707 (/home/ubuntu/weka/prasad2/build/libs/wekaapplication-0.0.1-SNAPSHOT.jar started by ubuntu in /home/ubuntu/weka/prasad2)
2016-11-17 11:31:32.495  INFO 15707 --- [           main] c.w.GetModelFromWekaApplication          : No active profile set, falling back to default profiles: default
2016-11-17 11:31:33.030  INFO 15707 --- [           main] ationConfigEmbeddedWebApplicationContext : Refreshing org.springframework.boot.context.embedded.AnnotationConfigEmbeddedWebApplicationContext@5a2e4553: startup date [Thu Nov 17 11:31:33 IST 2016]; root of context hierarchy
2016-11-17 11:31:40.604  INFO 15707 --- [           main] s.b.c.e.t.TomcatEmbeddedServletContainer : Tomcat initialized with port(s): 8080 (http)
2016-11-17 11:31:40.678  INFO 15707 --- [           main] o.apache.catalina.core.StandardService   : Starting service Tomcat
2016-11-17 11:31:40.690  INFO 15707 --- [           main] org.apache.catalina.core.StandardEngine  : Starting Servlet Engine: Apache Tomcat/8.5.5
2016-11-17 11:31:41.118  INFO 15707 --- [ost-startStop-1] o.a.c.c.C.[Tomcat].[localhost].[/]       : Initializing Spring embedded WebApplicationContext
2016-11-17 11:31:41.118  INFO 15707 --- [ost-startStop-1] o.s.web.context.ContextLoader            : Root WebApplicationContext: initialization completed in 8102 ms
2016-11-17 11:31:41.915  INFO 15707 --- [ost-startStop-1] o.s.b.w.servlet.ServletRegistrationBean  : Mapping servlet: 'dispatcherServlet' to [/]
2016-11-17 11:31:41.946  INFO 15707 --- [ost-startStop-1] o.s.b.w.servlet.FilterRegistrationBean   : Mapping filter: 'characterEncodingFilter' to: [/*]
2016-11-17 11:31:41.957  INFO 15707 --- [ost-startStop-1] o.s.b.w.servlet.FilterRegistrationBean   : Mapping filter: 'hiddenHttpMethodFilter' to: [/*]
2016-11-17 11:31:41.957  INFO 15707 --- [ost-startStop-1] o.s.b.w.servlet.FilterRegistrationBean   : Mapping filter: 'httpPutFormContentFilter' to: [/*]
2016-11-17 11:31:41.958  INFO 15707 --- [ost-startStop-1] o.s.b.w.servlet.FilterRegistrationBean   : Mapping filter: 'requestContextFilter' to: [/*]
2016-11-17 11:31:43.302  INFO 15707 --- [           main] s.w.s.m.m.a.RequestMappingHandlerAdapter : Looking for @ControllerAdvice: org.springframework.boot.context.embedded.AnnotationConfigEmbeddedWebApplicationContext@5a2e4553: startup date [Thu Nov 17 11:31:33 IST 2016]; root of context hierarchy
2016-11-17 11:31:43.600  INFO 15707 --- [           main] s.w.s.m.m.a.RequestMappingHandlerMapping : Mapped "{[/chasis/bike/{id}]}" onto public org.json.simple.JSONObject com.wekaapplication.TestController.getBikeModel(java.lang.String)
2016-11-17 11:31:43.601  INFO 15707 --- [           main] s.w.s.m.m.a.RequestMappingHandlerMapping : Mapped "{[/chasis/car/{id}]}" onto public org.json.simple.JSONObject com.wekaapplication.TestController.getcarModel(java.lang.String)
2016-11-17 11:31:43.604  INFO 15707 --- [           main] s.w.s.m.m.a.RequestMappingHandlerMapping : Mapped "{[/error],produces=[text/html]}" onto public org.springframework.web.servlet.ModelAndView org.springframework.boot.autoconfigure.web.BasicErrorController.errorHtml(javax.servlet.http.HttpServletRequest,javax.servlet.http.HttpServletResponse)
2016-11-17 11:31:43.605  INFO 15707 --- [           main] s.w.s.m.m.a.RequestMappingHandlerMapping : Mapped "{[/error]}" onto public org.springframework.http.ResponseEntity<java.util.Map<java.lang.String, java.lang.Object>> org.springframework.boot.autoconfigure.web.BasicErrorController.error(javax.servlet.http.HttpServletRequest)
2016-11-17 11:31:43.793  INFO 15707 --- [           main] o.s.w.s.handler.SimpleUrlHandlerMapping  : Mapped URL path [/webjars/**] onto handler of type [class org.springframework.web.servlet.resource.ResourceHttpRequestHandler]
2016-11-17 11:31:43.803  INFO 15707 --- [           main] o.s.w.s.handler.SimpleUrlHandlerMapping  : Mapped URL path [/**] onto handler of type [class org.springframework.web.servlet.resource.ResourceHttpRequestHandler]
2016-11-17 11:31:44.001  INFO 15707 --- [           main] o.s.w.s.handler.SimpleUrlHandlerMapping  : Mapped URL path [/**/favicon.ico] onto handler of type [class org.springframework.web.servlet.resource.ResourceHttpRequestHandler]
2016-11-17 11:31:44.751  INFO 15707 --- [           main] o.s.j.e.a.AnnotationMBeanExporter        : Registering beans for JMX exposure on startup
2016-11-17 11:31:45.019  INFO 15707 --- [           main] s.b.c.e.t.TomcatEmbeddedServletContainer : Tomcat started on port(s): 8080 (http)
2016-11-17 11:31:45.041  INFO 15707 --- [           main] c.w.GetModelFromWekaApplication          : Started GetModelFromWekaApplication in 15.54 seconds (JVM running for 17.671)
2016-11-17 11:32:26.468  INFO 15707 --- [nio-8080-exec-1] o.a.c.c.C.[Tomcat].[localhost].[/]       : Initializing Spring FrameworkServlet 'dispatcherServlet'
2016-11-17 11:32:26.468  INFO 15707 --- [nio-8080-exec-1] o.s.web.servlet.DispatcherServlet        : FrameworkServlet 'dispatcherServlet': initialization started
2016-11-17 11:32:26.574  INFO 15707 --- [nio-8080-exec-1] o.s.web.servlet.DispatcherServlet        : FrameworkServlet 'dispatcherServlet': initialization completed in 106 ms
2016-11-17 11:32:27.685  INFO 15707 --- [nio-8080-exec-1] com.wekaapplication.TestController       : Input chasis no is: WAUZF98K19Y7
2016-11-17 11:32:27.698  INFO 15707 --- [nio-8080-exec-1] com.wekaapplication.TestController       : Predicted Model name is: activa
2016-11-17 11:32:27.699  INFO 15707 --- [nio-8080-exec-1] com.wekaapplication.TestController       : TIme taken to predict: 1.0ms
2016-11-17 11:34:51.539  INFO 15707 --- [nio-8080-exec-2] com.wekaapplication.TestController       : Input chasis no is: MBLKC12EC9GL
2016-11-17 11:34:51.550  INFO 15707 --- [nio-8080-exec-2] com.wekaapplication.TestController       : Predicted Model name is: cbz xtreme
2016-11-17 11:34:51.551  INFO 15707 --- [nio-8080-exec-2] com.wekaapplication.TestController       : TIme taken to predict: 10.0ms
